<svg xmlns="http://www.w3.org/2000/svg" width="691" height="1080.007" viewBox="0 0 691 1080.007">
  <g id="Group_47" data-name="Group 47" transform="translate(0 0.007)">
    <path id="Path_239" data-name="Path 239" d="M0,0H691V1078H0Z" fill="#3784f6"/>
    <path id="Path_52" data-name="Path 52" d="M672.937,614.891c-22.881.995-56.836,15.261-67.352,56.068-16.578,64.327,112.9,283.669-118.3,293.887-153.092,6.769-153.092,82.727-153.092,82.727H672.937Z" transform="translate(17.589 32.363)" fill="#333" fill-rule="evenodd"/>
    <path id="Path_53" data-name="Path 53" d="M662-.007,543,0c4.628,84.283,75.26,53.19,88.615,104.508,11.014,42.334-40.036,63.888-49.783,121.154-5.945,34.929-2.517,60,16.554,100.428C616.408,364.305,641.291,379.082,662,384.2Z" transform="translate(29 0)" fill="#fff"/>
    <path id="Path_54" data-name="Path 54" d="M196.443,693.355c-.824,3.273-2.344,7.849,1.635,8.435,2.135.314,6.194-3.168,6.9-6.469,1.029-4.772-.248-6.737-2.978-6.827C199.864,688.423,197.267,690.083,196.443,693.355Z" transform="translate(10.287 36.236)" fill="#fff"/>
    <path id="Path_55" data-name="Path 55" d="M198.387,702.308a2.908,2.908,0,0,1-.357-.024A3.333,3.333,0,0,1,195.6,700.9c-1.139-1.713-.419-4.466.209-6.9.067-.252.129-.5.191-.737.873-3.454,3.594-5.223,5.889-5.223.048,0,.1,0,.148,0a3.659,3.659,0,0,1,2.925,1.3c.958,1.227,1.12,3.221.5,6.1C204.778,698.669,200.946,702.308,198.387,702.308Zm3.5-13.316c-1.92,0-4.212,1.527-4.964,4.505-.062.243-.124.491-.191.742-.554,2.126-1.244,4.772-.339,6.133a2.413,2.413,0,0,0,1.773.971c1.858.266,5.718-3.093,6.366-6.1.547-2.55.443-4.339-.32-5.314a2.737,2.737,0,0,0-2.205-.938Z" transform="translate(10.263 36.213)"/>
    <path id="Path_56" data-name="Path 56" d="M160.932,691.392c.8,3.277,2.274,7.868-1.711,8.42-2.135.295-6.165-3.225-6.842-6.527-.986-4.781.305-6.732,3.04-6.8C157.554,686.43,160.136,688.114,160.932,691.392Z" transform="translate(8.003 36.131)" fill="#fff"/>
    <path id="Path_57" data-name="Path 57" d="M158.979,700.326c-2.554,0-6.376-3.686-7.043-6.926-.595-2.883-.414-4.876.558-6.094a3.681,3.681,0,0,1,2.94-1.28c2.331-.066,5.137,1.737,5.995,5.276.057.238.119.485.181.738.609,2.435,1.3,5.195.147,6.9a3.335,3.335,0,0,1-2.44,1.365A2.06,2.06,0,0,1,158.979,700.326Zm-3.44-13.344h-.086a2.721,2.721,0,0,0-2.216.919c-.772.971-.9,2.754-.366,5.308.619,3.012,4.44,6.4,6.313,6.152a2.388,2.388,0,0,0,1.782-.957c.916-1.35.248-4-.285-6.132-.062-.252-.124-.5-.186-.747C159.766,688.528,157.463,686.982,155.539,686.982Z" transform="translate(7.979 36.107)"/>
    <path id="Path_58" data-name="Path 58" d="M274.753,837.762c.072,11.636-5.68,59.332-5.68,59.332s-86.988,36.293-152.525-.247c-7.023-3.915-12.274-42.154-12.274-42.154s-10.6-70.93,1.848-98.313c8.32-18.287,111.365-24.933,136.672-6.527Z" transform="translate(5.267 38.891)" fill="#3784f6"/>
    <path id="Path_59" data-name="Path 59" d="M185.552,913.649q-9.006,0-17.544-.852c-19.275-1.926-36.661-7.145-51.666-15.514-7.147-3.986-12.3-40.931-12.518-42.505-.1-.7-10.477-71.378,1.887-98.575,2.521-5.542,12.918-9.3,21.2-11.479,16.582-4.362,40.9-6.722,63.468-6.18,24.768.6,43.981,4.59,52.719,10.942a.485.485,0,0,1,.167.223l31.958,87.909a.459.459,0,0,1,.028.161c.072,11.537-5.627,58.919-5.684,59.394a.468.468,0,0,1-.291.381,244.347,244.347,0,0,1-51.8,13.611A214.666,214.666,0,0,1,185.552,913.649Zm-1.673-174.224c-20.561,0-41.8,2.3-56.726,6.227-11.588,3.045-18.7,6.832-20.575,10.952-12.251,26.94-1.92,97.337-1.811,98.046.053.385,5.3,38.053,12.036,41.806,33.731,18.805,73.275,17.868,100.512,13.773a245.476,245.476,0,0,0,51.341-13.444c.473-3.925,5.685-47.763,5.647-58.914l-31.882-87.69c-8.639-6.195-27.6-10.081-52.062-10.676Q187.137,739.421,183.879,739.425Z" transform="translate(5.245 38.867)"/>
    <path id="Path_60" data-name="Path 60" d="M158.095,732.384c.381-4.082,3.649-6.708,8.105-8.259,5.656-1.969,17.992-1.86,23.762-.257,5.208,1.446,9.8,4.115,10.96,8.7.991,3.93-2.979,15.066-2.979,15.066l-37.723-2.141C160.215,745.5,157.857,734.891,158.095,732.384Z" transform="translate(8.32 38.035)"/>
    <path id="Path_61" data-name="Path 61" d="M193.31,741.434l-14.8,9.985L165.273,741.31l.153-33.981,28.051-3.235Z" transform="translate(8.699 37.058)" fill="#fff"/>
    <path id="Path_62" data-name="Path 62" d="M178.529,751.919a.479.479,0,0,1-.291-.1L165.01,741.709a.475.475,0,0,1-.185-.38l.153-33.976a.474.474,0,0,1,.424-.472l28.051-3.235a.465.465,0,0,1,.372.119.48.48,0,0,1,.158.357l-.167,37.335a.474.474,0,0,1-.209.391L178.8,751.833A.467.467,0,0,1,178.529,751.919ZM165.778,741.1l12.771,9.757,14.314-9.653.162-36.549-27.1,3.125Z" transform="translate(8.675 37.034)"/>
    <path id="Path_63" data-name="Path 63" d="M200.53,691.662c-.076,17.045-9.6,30.822-21.265,30.769s-21.066-13.911-20.989-30.96,2.682-31.731,21.265-30.769C200.678,661.792,200.607,674.612,200.53,691.662Z" transform="translate(8.33 34.771)" fill="#fff"/>
    <path id="Path_64" data-name="Path 64" d="M178.6,701.968c-2.067,0-4.46-1.9-4.569-1.988a.477.477,0,1,1,.6-.742c.719.575,2.906,2.012,4.345,1.745a1.507,1.507,0,0,0,1.067-.784c.605-1.047-.219-3.074-1.092-5.224s-1.848-4.557-1.834-6.855a.473.473,0,0,1,.476-.472h.005a.472.472,0,0,1,.472.481c-.015,2.107.929,4.438,1.763,6.494,1.005,2.474,1.873,4.61,1.034,6.056a2.442,2.442,0,0,1-1.72,1.246A4.055,4.055,0,0,1,178.6,701.968Z" transform="translate(9.15 36.192)"/>
    <path id="Path_65" data-name="Path 65" d="M178.39,708.849a5.537,5.537,0,0,1-3.416-1.223.475.475,0,1,1,.581-.752,4.493,4.493,0,0,0,5.218.342.485.485,0,0,1,.434-.157.471.471,0,0,1,.395.543c-.014.1-.062.414-1.148.846A5.651,5.651,0,0,1,178.39,708.849Z" transform="translate(9.199 37.199)"/>
    <path id="Path_66" data-name="Path 66" d="M184.024,682.049c2.8.014,8.2,2.117,7.738,4.685-.143.795-.928-1.479-8.6-2.3C181.937,684.3,182.051,682.044,184.024,682.049Z" transform="translate(9.598 35.897)"/>
    <path id="Path_67" data-name="Path 67" d="M172.534,682.416c-2.44-.642-7.328.219-7.6,2.806-.081.8,2.874-1.645,7.581-.414C173.591,685.09,174.249,682.868,172.534,682.416Z" transform="translate(8.681 35.906)"/>
    <path id="Path_68" data-name="Path 68" d="M183.417,690.587a.474.474,0,0,1-.434-.276.479.479,0,0,1,.234-.633c.624-.291,1.135-.553,1.587-.785,2.125-1.1,2.84-1.333,5.107.514a.477.477,0,1,1-.605.737c-1.886-1.536-2.173-1.384-4.068-.4-.458.238-.977.5-1.62.8A.512.512,0,0,1,183.417,690.587Z" transform="translate(9.628 36.213)"/>
    <path id="Path_69" data-name="Path 69" d="M167.343,689.716a.476.476,0,0,1-.243-.885l.315-.191c1.529-.918,3.626-2.174,5.718-.089a.475.475,0,1,1-.672.671c-1.568-1.561-3.017-.689-4.556.233l-.324.191A.424.424,0,0,1,167.343,689.716Z" transform="translate(8.782 36.18)"/>
    <path id="Path_70" data-name="Path 70" d="M186.972,691.041a1.269,1.269,0,0,0,1.377-1.218,1.12,1.12,0,0,0-2.182-.314C185.952,690.038,186.329,691.041,186.972,691.041Z" transform="translate(9.795 36.249)"/>
    <path id="Path_71" data-name="Path 71" d="M170.5,690.263a1.2,1.2,0,0,0,1.305-1.114,1.064,1.064,0,0,0-2.063-.291C169.539,689.34,169.9,690.258,170.5,690.263Z" transform="translate(8.931 36.218)"/>
    <path id="Path_72" data-name="Path 72" d="M199.4,698.676a4.193,4.193,0,0,1-.886-.1.474.474,0,1,1,.2-.927c.62.128,1.058.109,1.234-.062.292-.276.158-1.146.039-1.913-.167-1.075-.334-2.188.285-2.912a2.043,2.043,0,0,1,1.616-.6h.019a.476.476,0,1,1,0,.952h-.015a1.138,1.138,0,0,0-.891.276c-.339.391-.2,1.323-.067,2.146.162,1.046.329,2.13-.328,2.749A1.694,1.694,0,0,1,199.4,698.676Z" transform="translate(10.428 36.429)"/>
    <path id="Path_73" data-name="Path 73" d="M157.671,696.689a1.688,1.688,0,0,1-1.224-.414c-.648-.624-.472-1.7-.305-2.75.134-.823.286-1.751-.047-2.145a1.173,1.173,0,0,0-.9-.285.476.476,0,1,1,0-.952,2.05,2.05,0,0,1,1.625.619c.615.727.439,1.836.262,2.911-.124.766-.266,1.637.024,1.913.176.172.615.2,1.234.072a.476.476,0,1,1,.191.933A4.194,4.194,0,0,1,157.671,696.689Z" transform="translate(8.143 36.323)"/>
    <path id="Path_74" data-name="Path 74" d="M168.534,736.321a.475.475,0,0,1-.477-.476l.057-13.206a.477.477,0,0,1,.954,0l-.058,13.206A.474.474,0,0,1,168.534,736.321Z" transform="translate(8.845 38.009)"/>
    <path id="Path_75" data-name="Path 75" d="M169.081,656.931c-19.246,5.31-13.828,25.081-14.353,30.746-.114,1.227,4.284,1.375,5.608,3.787,2.3,4.186,2.521.289,2.082-3.393-1.239-10.346,1.02-15.085,5.046-16.213,1.663-.466,1.305.633,5.022,2.341,2.487,1.322,6.423,2.912,9.206,2.878,4.936-.062,4.755-4.253,9.448-4.743,4.355-.452,6.671,9.111,5.352,17.787-.558,3.668.534,7.151,2.873,2.983,1.348-2.4,3.874-2.032,4.794-2.855C210.506,684.552,206.094,646.722,169.081,656.931Z" transform="translate(8.127 34.484)"/>
    <path id="Path_76" data-name="Path 76" d="M177.844,749.946l22.033-17.867s1.954,6.755,1.611,10.1c-.672,6.532-10.926,18.492-10.926,18.492Z" transform="translate(9.36 38.531)"/>
    <path id="Path_77" data-name="Path 77" d="M179.044,750.03l-20.489-19.547s-2.893,7.973-3.431,10.856c-1.2,6.46,11.217,19.528,11.217,19.528Z" transform="translate(8.16 38.447)"/>
    <path id="Path_78" data-name="Path 78" d="M178.672,750.6a.478.478,0,0,1-.3-.1c-2.04-1.656-19.813-16.322-15.611-21.6a.478.478,0,0,1,.748.595c-3.064,3.848,10.125,15.932,15.466,20.265a.48.48,0,0,1,.072.67A.515.515,0,0,1,178.672,750.6Z" transform="translate(8.533 38.354)" fill="#fff"/>
    <path id="Path_79" data-name="Path 79" d="M177.868,750.543a.476.476,0,0,1-.311-.837c.748-.642,1.9-1.518,3.231-2.526,5.723-4.353,16.382-12.455,13.485-16.651a.476.476,0,0,1,.786-.538c3.412,4.943-7.3,13.087-13.689,17.949-1.32,1-2.459,1.87-3.188,2.493A.521.521,0,0,1,177.868,750.543Z" transform="translate(9.336 38.41)" fill="#fff"/>
    <path id="Path_80" data-name="Path 80" d="M177.387,890.876a.48.48,0,0,1-.477-.466l-2.348-131.2a.477.477,0,0,1,.466-.485.462.462,0,0,1,.486.466l2.349,131.2a.478.478,0,0,1-.467.485Z" transform="translate(9.187 39.933)"/>
    <path id="Path_81" data-name="Path 81" d="M170.7,861.136h0a.474.474,0,0,1-.476-.476l.357-80.083a.477.477,0,0,1,.954,0l-.358,80.083A.48.48,0,0,1,170.7,861.136Z" transform="translate(8.959 41.058)"/>
    <path id="Path_82" data-name="Path 82" d="M183.794,783.614h-.014a2.866,2.866,0,0,1-2.025-.847,2.83,2.83,0,0,1-.829-2.026,2.861,2.861,0,0,1,2.864-2.849h.014a2.866,2.866,0,0,1,2.025.847,2.83,2.83,0,0,1,.829,2.026,2.861,2.861,0,0,1-2.864,2.849Zm0-4.772a1.908,1.908,0,0,0-.014,3.816h.009a1.908,1.908,0,0,0,.014-3.816Z" transform="translate(9.522 40.942)" fill="#3784f6"/>
    <path id="Path_83" data-name="Path 83" d="M183.663,812.158a2.836,2.836,0,1,1,.739-.091A3.263,3.263,0,0,1,183.663,812.158Zm.005-4.772a1.908,1.908,0,0,0-.967,3.559,1.92,1.92,0,0,0,2.616-.689,1.9,1.9,0,0,0-1.648-2.87Z" transform="translate(9.516 42.444)" fill="#3784f6"/>
    <path id="Path_84" data-name="Path 84" d="M183.536,840.7a2.815,2.815,0,0,1-1.439-.39,2.869,2.869,0,1,1,1.439.39Zm.005-4.771a1.911,1.911,0,0,0-.491.062,1.909,1.909,0,0,0-.477,3.5,1.912,1.912,0,0,0,2.816-2.132,1.885,1.885,0,0,0-.886-1.165A1.866,1.866,0,0,0,183.541,835.927Z" transform="translate(9.509 43.946)" fill="#3784f6"/>
    <path id="Path_85" data-name="Path 85" d="M183.41,869.238a2.823,2.823,0,0,1-1.439-.391,2.867,2.867,0,1,1,1.439.391Zm.009-4.772a1.907,1.907,0,1,0,.958.257A1.922,1.922,0,0,0,183.419,864.467Z" transform="translate(9.503 45.448)" fill="#3784f6"/>
    <path id="Path_86" data-name="Path 86" d="M183.7,1040.871c.619-71.4.515-160.6-3.055-203.034-2.373-28.2-31.1-102.78-31.1-102.78s-31.782,4.609-48.021,20.275C81.631,774.522,65.75,856.465,64.587,882c-2.949,64.78-2.654,111.647-3.088,158.868Z" transform="translate(3.237 38.687)" fill="#fff"/>
    <path id="Path_87" data-name="Path 87" d="M61.995,1040.9c.081-8.853.138-17.653.2-26.842.248-39.069.5-79.468,2.892-132,.562-12.4,4.674-38.928,11.431-65.621,7.833-30.941,16.844-52.511,25.364-60.731,15-14.467,43.761-19.505,47.383-20.091,2.158,5.652,28.671,75.479,30.928,102.291,3.579,42.539,3.669,132.279,3.055,203h.953c.615-70.736.524-160.5-3.054-203.073-2.349-27.943-30.839-102.165-31.125-102.907l-.138-.357-.376.057c-.32.047-32.121,4.809-48.283,20.4C89.555,766.276,80.159,798.183,75.594,816.2c-6.776,26.755-10.893,53.362-11.46,65.812-2.392,52.553-2.649,92.961-2.9,132.04-.057,9.189-.114,17.99-.2,26.842Z" transform="translate(3.213 38.661)"/>
    <path id="Path_88" data-name="Path 88" d="M278.715,1040.855c2.278-61.287,5.227-130.5,7.957-163.829,3.341-40.751,6.023-88.99-18.487-113.964-14.433-14.709-53.824-27.706-53.824-27.706l-43.838,111.5-9.4,194Z" transform="translate(8.48 38.703)" fill="#fff"/>
    <path id="Path_89" data-name="Path 89" d="M161.632,1040.885l9.392-193.9,43.642-111.011c4.307,1.465,39.825,13.806,53.205,27.445,23.557,24.01,21.985,69.279,18.349,113.593-2.8,34.119-5.823,106.381-7.962,163.872h.953c2.139-57.472,5.165-129.7,7.958-163.791,3.649-44.533,5.217-90.045-18.622-114.34-14.346-14.619-53.619-27.7-54.015-27.825l-.428-.142-44,111.923-.028.072-9.4,194.1Z" transform="translate(8.457 38.673)"/>
    <path id="Path_90" data-name="Path 90" d="M190.6,697.153c-3.159,0-6.371-.742-8.1-2.055a5.4,5.4,0,0,1-1.573-2.687c-.505-1.456-.834-2.213-2-2.065-1.1.134-1.4.895-1.835,2.226a5.53,5.53,0,0,1-1.458,2.636c-2.855,2.459-12.456,1.588-15.272-.785-2.959-2.5-4.269-8.743-2.378-11.326,3.449-4.705,13.146-4.9,21.208-4.548,7.838.343,18.545,1.156,21.065,4.215,2.316,2.817,2.149,8.3-2.148,12.264C196.513,696.488,193.578,697.153,190.6,697.153Zm-11.4-7.782c1.682,0,2.205,1.5,2.629,2.721a4.669,4.669,0,0,0,1.254,2.245c2.993,2.274,11.512,2.631,14.385-.019,3.893-3.582,4.1-8.478,2.058-10.961-2.539-3.087-15.962-3.677-20.369-3.873-7.214-.318-17.178-.228-20.4,4.158-1.586,2.165-.319,7.887,2.225,10.038,2.468,2.084,11.555,2.926,14.033.795a4.775,4.775,0,0,0,1.173-2.213c.409-1.246.872-2.659,2.625-2.873C178.945,689.38,179.074,689.371,179.2,689.371Z" transform="translate(8.268 35.707)" fill="#3784f6"/>
    <path id="Path_91" data-name="Path 91" d="M159.7,696.767s13.271-.785,17.893-.776c5.279.015,21.414,1.189,21.414,1.189l-3.5,19.747s-8.634,3.673-16.248,3.639c-6.465-.029-17.073-4.148-17.073-4.148Z" transform="translate(8.405 36.631)" fill="#3784f6"/>
    <path id="Path_92" data-name="Path 92" d="M182.1,868.119a.477.477,0,0,1-.115-.861l35.156-21.707-7.177-21.417a.478.478,0,0,1,.906-.305l7.295,21.774a.48.48,0,0,1-.2.557l-35.48,21.907A.466.466,0,0,1,182.1,868.119Z" transform="translate(9.566 43.342)"/>
    <path id="Path_93" data-name="Path 93" d="M163.315,843.329a.475.475,0,0,1-.385-.195l-40.578-55.479a.471.471,0,0,1-.072-.414L134.5,745.283a.471.471,0,0,1,.591-.323.475.475,0,0,1,.324.589l-12.151,41.735,40.44,55.288a.474.474,0,0,1-.105.666A.507.507,0,0,1,163.315,843.329Z" transform="translate(6.435 39.207)"/>
    <path id="Path_94" data-name="Path 94" d="M153.577,886.686a.471.471,0,0,1-.4-.218l-34.4-53.6a.48.48,0,0,1-.011-.5l14.1-24.015a.477.477,0,0,1,.824.48L119.737,832.6l34.245,53.347a.475.475,0,0,1-.143.657A.458.458,0,0,1,153.577,886.686Z" transform="translate(6.247 42.533)"/>
    <path id="Path_95" data-name="Path 95" d="M303.063,944.995a242.672,242.672,0,0,0,17.021-29.7c3.859-8.292,6.771-16.66,6.514-22.648-.8-18.459-14.019-59.485-26.141-77.734-25.32-38.12-30.528-56.078-40.616-50.5-9.992,5.527,12.975,110.463,12.975,110.463l-16.705,29.98Z" transform="translate(13.479 40.18)" fill="#fff"/>
    <path id="Path_96" data-name="Path 96" d="M221.831,951.487c-9.162,3.386-33.7,7.8-42.522,11.555-10.973,4.677-31.038,16.551-27.855,21.027,4.417,6.213,31.191-10.285,31.648-5.428.528,5.618-17.193,14.9-22.915,16.845-8.186,2.788-26.612-3.012-30.419,4.329-1.973,3.8,8.986,8.219,8.986,8.219,1.629,2.926,6.723,8.884,11.021,11.495,11.526,7.01,30.562,2.653,42.556-.789,15.419-4.432,38.515-10.274,68.92-34.785,50.856-41,62.243-65.8,62.243-65.8l-51.027-17.4s-13.118,19.467-28.389,34.595c0,0-3.668-.342-5.488,1.546a4.349,4.349,0,0,0-.944,4.405C233.31,946.244,226.783,949.655,221.831,951.487Z" transform="translate(6.817 47.408)" fill="#3784f6"/>
    <path id="Path_97" data-name="Path 97" d="M165.982,1023.753c-5.952,0-11.807-.979-16.429-3.789-4.26-2.589-9.354-8.474-11.107-11.526-1.158-.484-7.991-3.446-9.182-6.657a2.566,2.566,0,0,1,.105-2.16c2.444-4.719,10.316-4.334,17.925-3.963,4.732.234,9.616.472,12.761-.6,6.013-2.046,23.072-11.261,22.595-16.356a.377.377,0,0,0-.185-.328c-1.187-.737-6.219,1.176-11.079,3.031-8.262,3.145-17.625,6.713-20.3,2.959a2.471,2.471,0,0,1-.3-2.2c1.6-5.652,19.041-15.575,28.356-19.542,4.794-2.041,14.138-4.263,23.177-6.408,7.8-1.855,15.172-3.6,19.365-5.157,2.992-1.109,10.435-4.267,15.447-9.861a4.744,4.744,0,0,1,1.134-4.62c1.706-1.77,4.784-1.745,5.652-1.7,14.995-14.9,28.046-34.176,28.175-34.371a.484.484,0,0,1,.548-.185l51.022,17.406a.482.482,0,0,1,.286.262.469.469,0,0,1-.005.385c-.114.247-12.017,25.375-62.377,65.973-29.123,23.482-51.9,29.966-66.976,34.271l-2.111.6C187.719,1020.585,176.689,1023.753,165.982,1023.753Zm-24.863-27.344c-5.022,0-9.354.657-10.907,3.649a1.646,1.646,0,0,0-.057,1.394c1.129,3.044,8.724,6.133,8.8,6.164a.489.489,0,0,1,.238.211c1.62,2.916,6.652,8.768,10.849,11.326,12.58,7.653,34.856,1.242,42.175-.853l2.111-.611c15-4.274,37.666-10.726,66.637-34.087,46.373-37.382,60-61.535,61.873-65.155l-50.165-17.112c-1.734,2.531-14.146,20.4-28.241,34.366a.48.48,0,0,1-.381.138c-.034-.005-3.464-.295-5.1,1.4a3.867,3.867,0,0,0-.844,3.9.463.463,0,0,1-.085.485c-5.151,5.88-12.913,9.181-16.011,10.327-4.249,1.571-11.645,3.331-19.474,5.19-9,2.136-18.307,4.348-23.024,6.356-10.412,4.434-26.426,14.015-27.818,18.924a1.552,1.552,0,0,0,.162,1.389c2.244,3.154,11.636-.424,19.179-3.3,6.408-2.441,10.412-3.887,11.922-2.949a1.316,1.316,0,0,1,.628,1.046c.592,6.3-18.3,15.661-23.238,17.345-3.317,1.132-8.077.9-13.114.652C145.183,996.514,143.1,996.409,141.119,996.409Z" transform="translate(6.793 47.384)"/>
    <path id="Path_98" data-name="Path 98" d="M266.717,900.75s-12.645,19.766-27.917,34.895c0,0,15.585,9.657,24.358,22.017,3.206,4.515,4.684,8.554,6.585,13.715,38.628-33.724,47.992-53.224,47.992-53.224Z" transform="translate(12.568 47.408)" fill="#fff"/>
    <path id="Path_99" data-name="Path 99" d="M163.975,1004.835c-10.6,0-12.913-1.337-13.013-1.4a.484.484,0,0,1-.158-.663.473.473,0,0,1,.648-.158c.057.032,2.959,1.547,16.172,1.211,4.684-.116,11.613-2.747,16.668-4.659,2-.757,3.726-1.414,5.007-1.8a.475.475,0,1,1,.281.908c-1.253.381-2.963,1.033-4.945,1.784-5.122,1.938-12.132,4.6-16.982,4.727C166.324,1004.814,165.1,1004.835,163.975,1004.835Z" transform="translate(7.933 52.492)"/>
    <path id="Path_100" data-name="Path 100" d="M163.191,1013.3a22.086,22.086,0,0,1-7.028-1,.477.477,0,0,1,.329-.895,24.959,24.959,0,0,0,12.351.379.486.486,0,0,1,.557.379.473.473,0,0,1-.376.558A29.743,29.743,0,0,1,163.191,1013.3Z" transform="translate(8.203 53.23)"/>
    <path id="Path_101" data-name="Path 101" d="M246.9,907.6c8.211-13.225,11.641-16.4,15.111-21.8,1.258-1.955,5.688-2.417,8.166-1.5,11.7,4.324,47.855,16.7,53.848,33.876.481,1.38-1.273,4.206-1.9,5.528-3.788,8.025-16.459,25.337-16.459,25.337-5.217,4.548-8.477,2.664-10.506-.2-17.649-24.947-34.579-26.2-46.473-32.7C245.164,914.2,245.012,910.65,246.9,907.6Z" transform="translate(12.932 46.518)" fill="#fff"/>
    <path id="Path_102" data-name="Path 102" d="M299.99,952.97h-.057a4.46,4.46,0,0,1-3.678-1.926c-13.733-19.409-27.771-25.5-39.044-30.4-3.1-1.346-6.037-2.621-8.643-4.048a6.065,6.065,0,0,1-3.2-3.973,6.5,6.5,0,0,1,1.248-5.257,83.788,83.788,0,0,0,6.338-11.132c3.768-7.464,7.333-14.528,12.632-13.986,13.771,1.38,52.352,18.125,58.727,35.656.505,1.384-.624,3.7-1.444,5.39-.142.295-.276.561-.376.789-3.621,7.993-16.282,25.157-16.411,25.333A8.018,8.018,0,0,1,299.99,952.97Zm-52.6-45.051a5.577,5.577,0,0,0-1.092,4.491,5.148,5.148,0,0,0,2.726,3.349c2.568,1.4,5.479,2.668,8.567,4.01,11.387,4.943,25.559,11.1,39.443,30.722a3.482,3.482,0,0,0,2.912,1.523h.047a7.036,7.036,0,0,0,5.323-3.178c.128-.172,12.726-17.255,16.305-25.157.105-.233.238-.508.386-.814.662-1.36,1.773-3.639,1.405-4.647-3.617-9.933-17.868-18.848-26.045-23.273-11.431-6.188-24.539-11.027-31.882-11.76-4.632-.471-8.066,6.3-11.688,13.468A83.651,83.651,0,0,1,247.386,907.92Z" transform="translate(12.907 46.433)"/>
    <path id="Path_103" data-name="Path 103" d="M261.512,897.621c-1.635,1.384-4.031,1.584-5.356.447s-1.072-3.173.562-4.557,4.032-1.584,5.356-.447S263.142,896.236,261.512,897.621Z" transform="translate(13.437 46.965)" fill="#fff"/>
    <path id="Path_104" data-name="Path 104" d="M241.773,936.038c18.683,12.325,26.631,25.732,28.118,34.033.757,4.22-3.583,5.9-4.832,3.344-7-14.315-11.669-19.243-17.054-23.981-3.975-3.5-8.882-5.922-9.612-4.957-2.373,3.159,14.415,14.814,14.415,14.814Z" transform="translate(12.535 49.265)" fill="#3784f6"/>
    <path id="Path_105" data-name="Path 105" d="M266.979,975.123a2.551,2.551,0,0,1-2.329-1.475c-7.081-14.485-11.86-19.362-16.94-23.834-4.036-3.554-8.319-5.427-8.924-5.014a.819.819,0,0,0-.105.646c.52,3.2,10.587,10.819,14.423,13.478a.475.475,0,0,1,.12.661.482.482,0,0,1-.663.119c-.576-.4-14.127-9.853-14.819-14.11a1.747,1.747,0,0,1,.3-1.38,1.058,1.058,0,0,1,.777-.395c1.706-.181,6.08,2.24,9.529,5.28,5.156,4.539,10.006,9.486,17.163,24.129a1.644,1.644,0,0,0,2.106.837c1.148-.376,2.212-1.751,1.829-3.886-1.505-8.392-9.624-21.655-27.913-33.72a.474.474,0,1,1,.524-.789c18.536,12.226,26.788,25.756,28.327,34.343.481,2.7-.943,4.462-2.473,4.957A3.06,3.06,0,0,1,266.979,975.123Z" transform="translate(12.511 49.242)"/>
    <path id="Path_106" data-name="Path 106" d="M250.373,963.243a302.91,302.91,0,0,1-21.018-21.817c-2.463-3.073-6.357.39-5.775,2.817,2.4,9.966,31.3,33.181,31.3,33.181Z" transform="translate(11.764 49.485)" fill="#3784f6"/>
    <path id="Path_107" data-name="Path 107" d="M254.894,977.924a.485.485,0,0,1-.3-.1c-1.186-.952-29.057-23.43-31.458-33.439a4.107,4.107,0,0,1,2.4-4.234,3.292,3.292,0,0,1,4.213,1.008c1.863,2.326,10.549,11.888,20.975,21.77a.475.475,0,1,1-.653.689c-10.463-9.909-19.188-19.524-21.065-21.864a2.337,2.337,0,0,0-3.049-.752,3.215,3.215,0,0,0-1.892,3.159c2.329,9.695,30.843,32.692,31.128,32.92a.475.475,0,0,1,.072.671A.469.469,0,0,1,254.894,977.924Z" transform="translate(11.74 49.462)"/>
    <path id="Path_108" data-name="Path 108" d="M187.587,948.267l-1.567-.415a7.3,7.3,0,0,1-5.2-8.919l18.6-70.393,15.7,4.134-18.593,70.4A7.315,7.315,0,0,1,187.587,948.267Z" transform="translate(9.504 45.713)" fill="#fff"/>
    <path id="Path_109" data-name="Path 109" d="M189.489,949.009a7.79,7.79,0,0,1-2-.261l-1.568-.415a7.774,7.774,0,0,1-5.541-9.5l18.6-70.393a.48.48,0,0,1,.581-.338l15.7,4.135a.467.467,0,0,1,.291.218.477.477,0,0,1,.047.362L197,943.21a7.713,7.713,0,0,1-3.612,4.734A7.632,7.632,0,0,1,189.489,949.009Zm10.293-79.859L181.3,939.081a6.822,6.822,0,0,0,4.865,8.335l1.567.414a6.833,6.833,0,0,0,8.353-4.852l18.479-69.932Z" transform="translate(9.48 45.689)"/>
    <path id="Path_110" data-name="Path 110" d="M214.178,872.758c-.433,1.641-4.3,2.051-8.638.908s-7.5-3.4-7.066-5.043,4.3-2.049,8.638-.908S214.612,871.116,214.178,872.758Z" transform="translate(10.444 45.635)" fill="#fff"/>
    <path id="Path_111" data-name="Path 111" d="M210.176,874.812a19,19,0,0,1-4.732-.665,17.206,17.206,0,0,1-5.476-2.407c-1.505-1.075-2.192-2.217-1.924-3.216.591-2.232,5.188-2.307,9.22-1.246a17.177,17.177,0,0,1,5.475,2.407c1.505,1.075,2.192,2.217,1.925,3.216s-1.425,1.655-3.264,1.85A11.468,11.468,0,0,1,210.176,874.812Zm-7.672-7.249c-2.012,0-3.351.48-3.545,1.208-.153.57.434,1.394,1.558,2.2a18.253,18.253,0,0,0,10.774,2.836c1.377-.143,2.292-.576,2.444-1.146s-.434-1.394-1.558-2.2a16.268,16.268,0,0,0-5.165-2.259A17.89,17.89,0,0,0,202.5,867.562Z" transform="translate(10.42 45.611)"/>
    <path id="Path_112" data-name="Path 112" d="M217.1,869.908c-.539,2.041-5.342,2.545-10.731,1.128s-9.316-4.225-8.777-6.265c.166-.623,1.115-4.225,1.115-4.225s5.875,2.118,9.616,3.1c3.845,1.014,9.892,2.036,9.892,2.036S217.261,869.324,217.1,869.908Z" transform="translate(10.397 45.292)" fill="#fff"/>
    <path id="Path_113" data-name="Path 113" d="M212.124,872.339a23.374,23.374,0,0,1-5.847-.823,21.228,21.228,0,0,1-6.765-2.973c-1.831-1.308-2.664-2.683-2.349-3.873l1.115-4.224a.473.473,0,0,1,.238-.3.467.467,0,0,1,.382-.024c.057.019,5.9,2.122,9.573,3.087,3.778.995,9.792,2.018,9.854,2.027a.477.477,0,0,1,.319.209.485.485,0,0,1,.062.38l-1.115,4.224c-.315,1.195-1.72,1.979-3.96,2.213A13.943,13.943,0,0,1,212.124,872.339Zm-13.056-11.151-.986,3.724c-.205.771.519,1.813,1.982,2.86a22.843,22.843,0,0,0,13.465,3.548c1.792-.191,2.935-.738,3.136-1.508l.986-3.724c-1.549-.272-6.252-1.123-9.421-1.96C205.143,863.315,200.559,861.716,199.069,861.189Z" transform="translate(10.374 45.268)"/>
    <path id="Path_114" data-name="Path 114" d="M218.164,865.787c.539-2.04-3.391-4.844-8.777-6.263s-10.191-.915-10.729,1.125,3.391,4.843,8.777,6.262S217.625,867.827,218.164,865.787Z" transform="translate(10.453 45.196)" fill="#fff"/>
    <path id="Path_115" data-name="Path 115" d="M213.188,868.212a23.433,23.433,0,0,1-5.851-.823,21.249,21.249,0,0,1-6.766-2.974c-1.829-1.308-2.664-2.683-2.349-3.873s1.72-1.979,3.96-2.211a21.359,21.359,0,0,1,7.353.746c5.822,1.533,9.744,4.477,9.115,6.846-.315,1.194-1.72,1.979-3.96,2.212C214.217,868.182,213.712,868.212,213.188,868.212Zm-9.5-9.006a13.306,13.306,0,0,0-1.411.072c-1.787.19-2.931.738-3.136,1.508s.52,1.813,1.982,2.859a22.852,22.852,0,0,0,13.471,3.548c1.787-.185,2.931-.737,3.136-1.507.405-1.533-2.964-4.239-8.439-5.685A22.412,22.412,0,0,0,203.692,859.205Z" transform="translate(10.429 45.171)"/>
    <path id="Path_116" data-name="Path 116" d="M200.523,880.321l-9.495,35.929,7.524,1.981,9.494-35.928Z" transform="translate(10.054 46.333)" fill="#3784f6"/>
    <path id="Path_117" data-name="Path 117" d="M195.929,912.188a.6.6,0,0,1-.124-.015.475.475,0,0,1-.338-.58l6.452-24.423a.476.476,0,0,1,.92.242l-6.453,24.424A.471.471,0,0,1,195.929,912.188Z" transform="translate(10.287 46.675)"/>
    <path id="Path_118" data-name="Path 118" d="M194.318,953.045l-1.425-.766a7.3,7.3,0,0,1-2.983-9.881l34.5-64.132,14.3,7.668-34.5,64.132A7.315,7.315,0,0,1,194.318,953.045Z" transform="translate(9.95 46.225)" fill="#fff"/>
    <path id="Path_119" data-name="Path 119" d="M197.786,954.415a7.785,7.785,0,0,1-3.674-.928l-1.424-.765a7.762,7.762,0,0,1-3.178-10.523l34.5-64.133a.476.476,0,0,1,.643-.195l14.3,7.668a.491.491,0,0,1,.234.281.456.456,0,0,1-.038.361l-34.5,64.138a7.809,7.809,0,0,1-6.866,4.1Zm26.841-75.483-34.274,63.714a6.813,6.813,0,0,0,2.787,9.238l1.424.766a6.836,6.836,0,0,0,9.254-2.783l34.275-63.714Z" transform="translate(9.925 46.201)"/>
    <path id="Path_120" data-name="Path 120" d="M236.971,885.982c.806-1.5-1.743-4.43-5.694-6.547s-7.806-2.622-8.613-1.124,1.744,4.428,5.695,6.547S236.165,887.48,236.971,885.982Z" transform="translate(11.711 46.181)" fill="#fff"/>
    <path id="Path_121" data-name="Path 121" d="M234.822,887.334a8.059,8.059,0,0,1-1.029-.072,17.2,17.2,0,0,1-5.646-1.969c-3.669-1.969-6.981-5.157-5.889-7.188s5.584-1.037,9.258.933a17.378,17.378,0,0,1,4.765,3.611c1.215,1.394,1.615,2.664,1.124,3.578A2.732,2.732,0,0,1,234.822,887.334Zm-10.012-9.4c-.891,0-1.5.214-1.72.618-.581,1.084,1.535,3.773,5.5,5.9a16.276,16.276,0,0,0,5.322,1.865c1.373.18,2.363-.024,2.644-.547s-.095-1.456-1.005-2.5a16.156,16.156,0,0,0-4.5-3.4A14.442,14.442,0,0,0,224.81,877.934Z" transform="translate(11.687 46.157)"/>
    <path id="Path_122" data-name="Path 122" d="M240.5,883.9c-1,1.86-5.789,1.232-10.7-1.4s-8.077-6.275-7.076-8.135c.3-.571,2.073-3.854,2.073-3.854s5.222,3.421,8.624,5.247c3.5,1.879,9.148,4.281,9.148,4.281Z" transform="translate(11.713 45.817)" fill="#fff"/>
    <path id="Path_123" data-name="Path 123" d="M237.817,885.482a18.743,18.743,0,0,1-8.22-2.536,21.317,21.317,0,0,1-5.889-4.462c-1.477-1.694-1.967-3.23-1.381-4.315l2.073-3.849a.47.47,0,0,1,.3-.238.493.493,0,0,1,.381.062c.053.034,5.241,3.431,8.591,5.228,3.445,1.845,9.054,4.239,9.111,4.262a.462.462,0,0,1,.262.281.481.481,0,0,1-.028.381l-2.073,3.853C240.461,885.048,239.341,885.482,237.817,885.482Zm-12.823-14.253-1.824,3.4c-.377.7.081,1.884,1.262,3.24a20.418,20.418,0,0,0,5.618,4.248c4.989,2.674,9.3,2.987,10.054,1.594l1.825-3.392c-1.443-.623-5.818-2.545-8.705-4.1C230.407,874.706,226.323,872.09,224.993,871.229Z" transform="translate(11.689 45.793)"/>
    <path id="Path_124" data-name="Path 124" d="M242.483,880.11c1-1.859-2.167-5.5-7.076-8.131s-9.7-3.259-10.7-1.4,2.168,5.5,7.077,8.132S241.483,881.969,242.483,880.11Z" transform="translate(11.817 45.764)" fill="#fff"/>
    <path id="Path_125" data-name="Path 125" d="M239.786,881.686a18.739,18.739,0,0,1-8.22-2.535,21.316,21.316,0,0,1-5.889-4.463c-1.477-1.694-1.967-3.229-1.381-4.315s2.135-1.522,4.364-1.232a21.338,21.338,0,0,1,6.981,2.436c5.3,2.844,8.428,6.617,7.271,8.777C242.43,881.249,241.31,881.686,239.786,881.686ZM227.373,870c-1.153,0-1.944.285-2.235.823-.377.7.081,1.883,1.263,3.239a20.4,20.4,0,0,0,5.617,4.248c4.989,2.674,9.3,2.987,10.055,1.594s-1.892-4.814-6.881-7.487a20.355,20.355,0,0,0-6.652-2.332A8.853,8.853,0,0,0,227.373,870Z" transform="translate(11.792 45.74)"/>
    <path id="Path_126" data-name="Path 126" d="M222.327,890.078l-17.612,32.737,6.855,3.677,17.612-32.737Z" transform="translate(10.774 46.846)" fill="#3784f6"/>
    <path id="Path_127" data-name="Path 127" d="M210.387,920.046a.477.477,0,0,1-.419-.7l11.969-22.255a.475.475,0,0,1,.839.447l-11.969,22.255A.473.473,0,0,1,210.387,920.046Z" transform="translate(11.048 47.202)"/>
    <path id="Path_128" data-name="Path 128" d="M66.552,949.548C22.09,932.179,17.206,912.466,18.569,895.9c8.362-101.828,73.151-150.752,89.594-145.062,7.781,2.693-20.3,76.754-30.2,120.991C75.5,882.88,82.138,883.4,91.677,894.4,109.751,905.477,93.764,967.868,66.552,949.548Z" transform="translate(0.967 39.494)" fill="#fff"/>
    <path id="Path_129" data-name="Path 129" d="M243.222,901.658c-6.8-4.714-20.375,9.005-28.923,10.357-5.975.946-25.982,1.008-28.146-4.211-.738-1.783,3.732-2.531,9.463-3.254l3.845-14.272a76.879,76.879,0,0,0-16.92-.927c-9.554.789-33.645,11.226-43.332,12.506-5.233.69-12.6.719-18.755-1.637a4.351,4.351,0,0,0-2.893-3.454c-2.492-.818-5.575,1.195-5.575,1.195A215.79,215.79,0,0,1,90.5,889.993a63.058,63.058,0,0,1-5.013,7.4C79.762,910.164,74,923.008,65.458,934.207a2.553,2.553,0,0,1-.319.347c13.123,4.672,30.915,9.8,54.411,14.395,38.353,7.493,61.5,1.884,77.211-1.388,12.217-2.551,31.091-7.569,38-19.139,2.573-4.31,4.293-11.959,4.364-15.3C239.12,913.118,246.744,904.1,243.222,901.658Z" transform="translate(3.428 46.8)" fill="#3784f6"/>
    <path id="Path_130" data-name="Path 130" d="M155.739,953.15a188.308,188.308,0,0,1-36.261-3.706A384.088,384.088,0,0,1,65,935.03a.477.477,0,0,1-.162-.8,2.429,2.429,0,0,0,.267-.286c8.5-11.141,14.323-24.123,19.955-36.682a1,1,0,0,1,.076-.139,62.954,62.954,0,0,0,4.975-7.34.475.475,0,0,1,.6-.2,212.938,212.938,0,0,0,21.227,7.887c.744-.442,3.46-1.893,5.795-1.127A4.76,4.76,0,0,1,120.9,899.9c7.042,2.607,15.105,1.932,18.268,1.513,4.56-.6,12.246-3.22,20.384-5.988,8.8-3,17.9-6.1,22.972-6.518a77.861,77.861,0,0,1,17.035.927.473.473,0,0,1,.324.209.488.488,0,0,1,.062.381L196.1,904.693a.48.48,0,0,1-.4.347c-2.935.371-8.391,1.056-9.073,2.226a.375.375,0,0,0-.009.376c1.963,4.724,21.357,4.914,27.632,3.92,3.279-.519,7.491-3.012,11.565-5.419,6.556-3.877,13.337-7.887,17.706-4.857a2.574,2.574,0,0,1,1.1,1.864c.448,3.4-4.207,9.2-5,10.166-.123,3.512-1.873,11.089-4.426,15.37-7.757,12.993-30.753,17.787-38.309,19.362l-2.149.453C185.209,950.51,172.668,953.15,155.739,953.15ZM65.978,934.363a385.078,385.078,0,0,0,53.687,14.143c36.546,7.136,59.608,2.279,74.871-.937l2.149-.453c7.457-1.555,30.142-6.284,37.685-18.919,2.516-4.215,4.226-11.741,4.3-15.071a.45.45,0,0,1,.115-.3c.053-.061,5.322-6.341,4.894-9.557a1.641,1.641,0,0,0-.7-1.2c-3.868-2.683-10.378,1.169-16.677,4.895-4.341,2.568-8.439,4.995-11.9,5.542-5.156.818-26.236,1.352-28.661-4.5a1.321,1.321,0,0,1,.066-1.218c.763-1.307,3.788-1.932,9.459-2.65l3.621-13.448a76.18,76.18,0,0,0-16.282-.842c-4.951.41-14,3.492-22.747,6.469-8.181,2.788-15.915,5.419-20.565,6.033-3.274.433-11.679,1.132-18.988-1.665a.468.468,0,0,1-.3-.391,3.843,3.843,0,0,0-2.568-3.054c-2.239-.742-5.141,1.123-5.169,1.142a.476.476,0,0,1-.4.057,213.149,213.149,0,0,1-21.141-7.821,63.827,63.827,0,0,1-4.8,7.036C80.287,910.235,74.469,923.184,65.978,934.363Z" transform="translate(3.404 46.777)"/>
    <path id="Path_131" data-name="Path 131" d="M184.658,931.721a.475.475,0,0,1-.091-.942c1.315-.252,3.149-.48,5.275-.742,5.365-.661,12.717-1.569,16.915-3.654,11.9-5.9,13.714-8.586,13.728-8.615a.477.477,0,0,1,.653-.153.466.466,0,0,1,.162.642c-.067.115-1.8,2.868-14.123,8.977-4.341,2.151-11.788,3.074-17.221,3.744-2.105.262-3.926.485-5.213.733A.579.579,0,0,1,184.658,931.721Z" transform="translate(9.694 48.292)"/>
    <path id="Path_132" data-name="Path 132" d="M208.4,935.144a.476.476,0,0,1-.139-.932,25.107,25.107,0,0,0,10.74-6.1.48.48,0,0,1,.673-.038.475.475,0,0,1,.038.67c-.153.172-3.807,4.167-11.174,6.375A.369.369,0,0,1,208.4,935.144Z" transform="translate(10.943 48.84)"/>
    <path id="Path_133" data-name="Path 133" d="M43.773,938.6a.486.486,0,0,1-.2-.043c-13.794-6.122-21.814-17.659-23.834-34.285-1.6-13.139.824-26.7,3.111-37.049,8.4-38.028,30.634-103.774,85.144-116.846a.483.483,0,0,1,.577.352.477.477,0,0,1-.353.576C54.218,764.25,32.142,829.615,23.789,867.425c-2.268,10.276-4.674,23.738-3.1,36.731,1.973,16.269,9.806,27.554,23.272,33.528a.48.48,0,0,1,.243.628A.464.464,0,0,1,43.773,938.6Z" transform="translate(1.012 39.493)"/>
    <path id="Path_134" data-name="Path 134" d="M113.658,885.818C99.93,878.449,95.49,875.4,89.786,872.45c-2.068-1.071-4.922.37-6.614,2.4-7.976,9.577-33.335,39.7-34.388,71.948-.071,2.137,2.216,3.516,4.407,3.844l29.762,8.331c4.631.071,6.361-5.1,6.685-8.6,2.821-30.413,19.68-44.7,26.731-56.264C118.466,890.674,116.822,887.521,113.658,885.818Z" transform="translate(2.567 45.899)" fill="#fff"/>
    <path id="Path_135" data-name="Path 135" d="M83.593,959.521a5.355,5.355,0,0,1-.777-.057l-.057-.015-29.519-8.292c-2.34-.361-4.851-1.955-4.851-4.605-.014-29.852,24.582-59.979,33.845-71.32l.481-.589c1.787-2.188,4.851-3.782,7.252-2.593,2.211,1.1,4.593,2.574,7.352,4.285a137.513,137.513,0,0,0,16.472,9.067,6.538,6.538,0,0,1,3.712,3.935,6.051,6.051,0,0,1-.785,5.038c-1.478,2.421-3.351,5-5.514,7.987-8.1,11.16-19.179,26.445-21.4,50.4a8.08,8.08,0,0,1-2.9,5.57A5.32,5.32,0,0,1,83.593,959.521Zm-.605-.994a4.3,4.3,0,0,0,3.321-.942,7.207,7.207,0,0,0,2.54-4.909c2.249-24.209,13.418-39.619,21.58-50.87,2.154-2.968,4.013-5.533,5.471-7.925a5.125,5.125,0,0,0,.686-4.262,5.587,5.587,0,0,0-3.193-3.349,138.309,138.309,0,0,1-16.587-9.124c-2.74-1.7-5.1-3.164-7.271-4.243-1.93-.961-4.579.49-6.09,2.34l-.481.589c-9.2,11.27-33.64,41.207-33.631,70.717,0,2.1,2.111,3.373,4.069,3.667l.057.015Z" transform="translate(2.547 45.876)"/>
    <path id="Path_136" data-name="Path 136" d="M90.919,889.274c2.106.385,4.284-.638,4.865-2.279s-.658-3.283-2.764-3.668-4.284.638-4.865,2.279S88.812,888.893,90.919,889.274Z" transform="translate(4.632 46.487)" fill="#fff"/>
    <path id="Path_137" data-name="Path 137" d="M108.42,901.18c-10.754,19.609-11.507,35.169-8.939,43.205,1.306,4.081,5.928,3.543,5.837.7-.509-15.917,1.316-22.458,3.856-29.157,1.877-4.947,5.084-9.381,6.18-8.862,3.574,1.688-5.814,19.823-5.814,19.823Z" transform="translate(5.171 47.431)" fill="#3784f6"/>
    <path id="Path_138" data-name="Path 138" d="M103,947.829a4.261,4.261,0,0,1-3.95-3.278c-2.659-8.31-1.692-24.124,8.977-43.576a.477.477,0,0,1,.839.456c-10.526,19.192-11.5,34.709-8.905,42.829.662,2.065,2.244,2.793,3.435,2.583a1.64,1.64,0,0,0,1.473-1.722c-.519-16.283,1.454-22.924,3.888-29.342,1.629-4.3,4.355-8.468,5.956-9.11a1.072,1.072,0,0,1,.873-.014,1.76,1.76,0,0,1,.905,1.084c1.382,4.082-6.18,18.763-6.5,19.386a.477.477,0,0,1-.847-.438c2.144-4.144,7.485-15.57,6.446-18.644a.828.828,0,0,0-.409-.527c-.705-.077-3.621,3.573-5.527,8.6-2.4,6.322-4.341,12.863-3.826,28.971a2.588,2.588,0,0,1-2.263,2.687A2.794,2.794,0,0,1,103,947.829Z" transform="translate(5.147 47.407)"/>
    <path id="Path_139" data-name="Path 139" d="M113.524,929.263c4.6-13.615,7.819-26.183,8.377-29.091.743-3.867,5.8-2.621,6.423-.2,2.544,9.928-12.145,43.933-12.145,43.933Z" transform="translate(5.975 47.247)" fill="#3784f6"/>
    <path id="Path_140" data-name="Path 140" d="M116.207,944.4a.534.534,0,0,1-.191-.038.471.471,0,0,1-.247-.623c.147-.338,14.6-33.966,12.122-43.628a3.222,3.222,0,0,0-3.151-1.907,2.33,2.33,0,0,0-2.344,2.083c-.562,2.945-3.783,15.508-8.4,29.157a.478.478,0,0,1-.905-.3c4.6-13.6,7.8-26.107,8.363-29.028a3.287,3.287,0,0,1,3.249-2.859h.134a4.089,4.089,0,0,1,3.968,2.626c2.559,9.971-11.569,42.843-12.169,44.237A.467.467,0,0,1,116.207,944.4Z" transform="translate(5.951 47.224)"/>
    <path id="Path_141" data-name="Path 141" d="M64.615,872.333a.47.47,0,0,1-.372-.181.481.481,0,0,1,.076-.671c3.821-3.036,9-1.851,10.583-1.39,1.591-4.985,15.8-49.642,22.243-75.687a.476.476,0,0,1,.924.228c-6.8,27.5-22.252,75.716-22.409,76.2a.475.475,0,0,1-.243.281.486.486,0,0,1-.372.019c-.062-.024-6.094-2.126-10.14,1.084A.4.4,0,0,1,64.615,872.333Z" transform="translate(3.376 41.792)"/>
    <path id="Path_142" data-name="Path 142" d="M185.667,848.223a.481.481,0,0,1-.291-.1.472.472,0,0,1-.081-.666l55.131-70.793L227.46,746.736a.478.478,0,0,1,.877-.38l13.079,30.184a.471.471,0,0,1-.062.48l-55.311,71.016A.463.463,0,0,1,185.667,848.223Z" transform="translate(9.747 39.267)"/>
    <path id="Path_143" data-name="Path 143" d="M318.433,909.919c5.661-9.657,9.263-24.128,9.263-24.128Z" transform="translate(16.76 46.621)" fill="#fff"/>
    <path id="Path_144" data-name="Path 144" d="M318.452,910.419a.433.433,0,0,1-.238-.066.475.475,0,0,1-.172-.652c5.561-9.486,9.178-23.858,9.211-24.005a.476.476,0,0,1,.924.228c-.038.147-3.683,14.647-9.315,24.253A.463.463,0,0,1,318.452,910.419Z" transform="translate(16.736 46.597)"/>
    <path id="Path_145" data-name="Path 145" d="M62.636,724.9a27.368,27.368,0,1,0-27.368-27.368A27.368,27.368,0,0,0,62.636,724.9Z" transform="translate(1.856 35.272)"/>
    <path id="Path_146" data-name="Path 146" d="M495.368,159.737A27.368,27.368,0,1,0,468,132.368,27.369,27.369,0,0,0,495.368,159.737Z" transform="translate(24.632 5.526)" fill="#333"/>
    <path id="Path_147" data-name="Path 147" d="M63.052,726.1a28.191,28.191,0,1,1,28.237-28.191A28.243,28.243,0,0,1,63.052,726.1Zm0-55.431a27.24,27.24,0,1,0,27.284,27.24A27.295,27.295,0,0,0,63.052,670.668Z" transform="translate(1.832 35.248)" fill="#fff"/>
    <path id="Path_148" data-name="Path 148" d="M299.989,891.291a77.781,77.781,0,1,0-77.906-77.78A77.843,77.843,0,0,0,299.989,891.291Z" transform="translate(11.689 38.723)" fill="#3784f6"/>
    <path id="Path_149" data-name="Path 149" d="M317.212,794.744s14.237,2.145,19.264,5.085c7.028,4.11,17.039,17.236,23.7,21.917,3.645,2.564,16.424,7.226,16.424,7.226l-4.422,43.976s-45.414-2.778-54-15.333C313.524,850.827,317.212,794.744,317.212,794.744Z" transform="translate(16.622 41.829)" fill="#fff"/>
    <path id="Path_150" data-name="Path 150" d="M372.2,873.452h-.028c-1.863-.114-45.748-2.935-54.368-15.537-4.688-6.85-1.2-60.878-1.043-63.176a.464.464,0,0,1,.177-.338.493.493,0,0,1,.372-.1c.585.091,14.385,2.193,19.436,5.147,3.879,2.269,8.62,7.207,13.2,11.979,3.874,4.039,7.533,7.849,10.535,9.957,3.555,2.5,16.186,7.121,16.315,7.168a.474.474,0,0,1,.311.495l-4.422,43.976A.491.491,0,0,1,372.2,873.452Zm-54.52-78.133c-.358,5.685-3.355,55.817.909,62.058,7.905,11.556,48.4,14.757,53.181,15.095l4.341-43.153c-2.116-.78-12.827-4.795-16.186-7.16-3.078-2.159-6.766-6.008-10.674-10.076-4.536-4.728-9.224-9.614-12.994-11.817C331.9,797.717,320.267,795.738,317.68,795.319Z" transform="translate(16.598 41.805)" fill="#3784f6"/>
    <path id="Path_151" data-name="Path 151" d="M558.9,868.552a.267.267,0,0,1-.086-.009l-73.718-13.435a.413.413,0,0,1-.181-.076c-.309-.209-30.834-21.217-34.021-44.433-1.111-8.073,1.177-15.542,6.8-22.2,10.883-12.893,30.853-21.955,50.875-23.082,17.778-1,33.669,4.209,44.743,14.676,16.3,15.395,17.058,38.6,14.828,55.345a138.43,138.43,0,0,1-8.8,32.916A.49.49,0,0,1,558.9,868.552Zm-73.533-14.357,73.241,13.343a138.494,138.494,0,0,0,8.587-32.335c2.2-16.526,1.458-39.395-14.543-54.508-10.883-10.285-26.521-15.4-44.037-14.414-19.775,1.113-39.478,10.042-50.2,22.744-5.437,6.441-7.653,13.658-6.581,21.455C454.88,832.692,483.608,852.977,485.366,854.195Z" transform="translate(23.717 40.274)"/>
    <path id="Path_152" data-name="Path 152" d="M362.9,892.939c-19.751-13.235,6.052-33.044,14.219-63.861,26.378,17.312,45.385,19.353,50.313,18.463,18.016-3.249,29.042-72.7,49.779-65.812,26.083,8.662,20.451,75.421-21.118,123.121C439.563,923.814,390.141,903.115,362.9,892.939Z" transform="translate(18.717 41.118)" fill="#fff"/>
    <path id="Path_153" data-name="Path 153" d="M434.415,913.1c-19.7,0-45.953-9.953-65.436-17.34-2.178-.823-4.26-1.613-6.223-2.35a.432.432,0,0,1-.1-.053c-13.008-8.715-6.672-20.45,1.353-35.3,4.569-8.458,9.749-18.048,12.671-29.072a.479.479,0,0,1,.291-.323.471.471,0,0,1,.434.047c26.731,17.545,45.495,19.2,49.964,18.392,7.948-1.432,14.819-16.888,21.466-31.835,8.277-18.61,16.839-37.849,28.546-33.958,6.734,2.236,11.636,8.331,14.181,17.616,3.487,12.736,2.239,30.708-3.417,49.31a156.927,156.927,0,0,1-31.667,56.958C451.5,910.893,443.678,913.1,434.415,913.1Zm-71.274-20.561c1.954.729,4.017,1.513,6.176,2.332,14.195,5.38,31.863,12.078,48.149,15.337,19.122,3.82,31.648,1.979,38.286-5.642a155.979,155.979,0,0,0,31.477-56.61c5.608-18.435,6.852-36.217,3.412-48.781-2.454-8.967-7.142-14.833-13.561-16.964-10.9-3.625-19.274,15.223-27.375,33.443-7.057,15.87-13.722,30.865-22.166,32.387-4.536.814-23.409-.795-50.107-18.173-2.978,10.865-8.077,20.3-12.579,28.643C356.757,873.478,350.91,884.306,363.141,892.535Z" transform="translate(18.694 41.095)"/>
    <path id="Path_154" data-name="Path 154" d="M406,837.291s-24.348,33.453-27.632,63.727c0,0-28.042-5.081-30.962-15.984-2.135-7.978,13.365-52.453,23.791-63.942C392.7,825.85,406,837.291,406,837.291Z" transform="translate(18.274 43.215)" fill="#fff"/>
    <path id="Path_155" data-name="Path 155" d="M378.391,901.518a.272.272,0,0,1-.086-.009c-1.158-.21-28.369-5.261-31.339-16.332-2.22-8.3,13.308-52.715,23.9-64.384a.473.473,0,0,1,.458-.143,87.432,87.432,0,0,1,35.007,16.308.483.483,0,0,1,.077.642c-.243.333-24.311,33.7-27.541,63.5a.452.452,0,0,1-.192.328A.52.52,0,0,1,378.391,901.518Zm-7-79.879c-10.225,11.594-25.587,55.5-23.5,63.295,2.6,9.705,26.321,14.8,30.085,15.542,3.278-28.229,24.778-59.369,27.4-63.076A87.54,87.54,0,0,0,371.391,821.639Z" transform="translate(18.25 43.191)"/>
    <path id="Path_156" data-name="Path 156" d="M539.9,760.148s-27.684,6.289-49.336,6c-11.774-.152-24.611-7.344-31.615-24.8-3.713-9.257-6.052-16.213-4.837-25.28.453-3.377,2.831-8.111,3.016-9.272,2.278-14.419,8.782-23.586,26.4-27.14,17.439-3.516,38.681-.718,48.449,17.226C541.873,715.068,515.037,740.063,539.9,760.148Z" transform="translate(23.884 35.702)"/>
    <path id="Path_157" data-name="Path 157" d="M487.752,777.25l26.325-4.448-6.938-41.649-25.792,6.707Z" transform="translate(25.334 38.482)" fill="#fff"/>
    <path id="Path_158" data-name="Path 158" d="M495.578,757.045c-8.877-2.574-7.181-19.092-7.181-19.092l19.956-2.268a145.313,145.313,0,0,0,1.811,15.651S503.445,759.328,495.578,757.045Z" transform="translate(25.698 38.72)"/>
    <path id="Path_159" data-name="Path 159" d="M469.714,730.355c3.526,16.849,16.015,29.533,25.216,27.625,11.136-2.307,20.846-19.377,17.32-36.222s-16.705-28.281-27.836-25.964S466.193,713.51,469.714,730.355Z" transform="translate(24.674 36.605)" fill="#fff"/>
    <path id="Path_160" data-name="Path 160" d="M518.314,722.825c-2.2,4.69-16.625.081-19.984-3.716-6.966-7.883-9.6-31.183,3.7-26.3C509.994,695.742,520.453,718.267,518.314,722.825Z" transform="translate(25.925 36.429)"/>
    <path id="Path_161" data-name="Path 161" d="M495.547,689.636c4.756,2.064.128,17.512-2.668,21.736-6.427,9.695-29.08,18.562-29.095,4.415C463.77,705.263,490.925,687.628,495.547,689.636Z" transform="translate(24.41 36.288)"/>
    <path id="Path_162" data-name="Path 162" d="M486.359,738.1a3.728,3.728,0,0,1-1.767-.38,2.282,2.282,0,0,1-1.167-1.594,13.99,13.99,0,0,1-.091-2.874,25.866,25.866,0,0,0-.772-8.221.478.478,0,0,1,.915-.276,26.685,26.685,0,0,1,.815,8.516,14.159,14.159,0,0,0,.066,2.649,1.359,1.359,0,0,0,.692.961c1.109.6,3.235.034,3.959-.238a.476.476,0,1,1,.339.889A9.726,9.726,0,0,1,486.359,738.1Z" transform="translate(25.397 38.127)"/>
    <path id="Path_163" data-name="Path 163" d="M488.1,744.438a7.668,7.668,0,0,1-3.459-.833.476.476,0,1,1,.424-.852,7.382,7.382,0,0,0,7.681-.914.449.449,0,0,1,.428-.185.476.476,0,0,1,.43.518c-.011.105-.039.419-1.354,1.147A8.725,8.725,0,0,1,488.1,744.438Z" transform="translate(25.493 39.034)"/>
    <path id="Path_164" data-name="Path 164" d="M489.716,719.485c2.878-.6,7.819.718,8.967,3.116a13.042,13.042,0,0,0-9.329-.476C487.863,722.559,486.948,720.061,489.716,719.485Z" transform="translate(25.681 37.86)"/>
    <path id="Path_165" data-name="Path 165" d="M479.283,721.186c-2.636.262-7.124,2.9-6.438,5.542.215.819,2.216-2.673,7.3-3.182C481.308,723.428,481.136,721,479.283,721.186Z" transform="translate(24.883 37.957)"/>
    <path id="Path_166" data-name="Path 166" d="M489.968,726.157a.477.477,0,0,1-.405-.723c1.42-2.326,4.513-2.717,7.877-.995a.477.477,0,1,1-.439.846c-2.883-1.475-5.49-1.226-6.628.643A.464.464,0,0,1,489.968,726.157Z" transform="translate(25.763 38.072)"/>
    <path id="Path_167" data-name="Path 167" d="M475.731,729.069a.447.447,0,0,1-.242-.067.478.478,0,0,1-.167-.652c1.024-1.717,3.336-2.778,6.189-1.279a.476.476,0,1,1-.443.842c-2.629-1.385-4.336-.072-4.926.922A.485.485,0,0,1,475.731,729.069Z" transform="translate(25.013 38.229)"/>
    <path id="Path_168" data-name="Path 168" d="M473.831,774.784s2.054,9.5,23.181,9.819c26.25.4,31.005-17.559,31.005-17.559,53.024,7.936,66.361,81.763,44.576,129.944-15.258,8.967-61.686,3.725-123.7-4.709C444.455,850.524,437.965,798.642,473.831,774.784Z" transform="translate(23.441 40.371)" fill="#3784f6"/>
    <path id="Path_169" data-name="Path 169" d="M492.624,726.244a1.338,1.338,0,0,0,1.148-1.552,1.177,1.177,0,0,0-2.312.153C491.356,725.435,491.966,726.382,492.624,726.244Z" transform="translate(25.866 38.095)"/>
    <path id="Path_170" data-name="Path 170" d="M478.2,728.977a1.249,1.249,0,0,0,1.092-1.427,1.117,1.117,0,0,0-2.182.157C477.012,728.239,477.578,729.106,478.2,728.977Z" transform="translate(25.111 38.249)"/>
    <path id="Path_171" data-name="Path 171" d="M509.708,725.164c-.534,3.349-1.506,8.625,3.1,7.359,1.882-.518,5.25-5.138,4.755-8.448-.715-4.79-3.34-5.528-5.279-5.3S510.237,721.83,509.708,725.164Z" transform="translate(26.802 37.828)" fill="#fff"/>
    <path id="Path_172" data-name="Path 172" d="M509.721,727.02c-1.143.771-2.678-2.432-3.059-3.7-.881-2.921.42-3.425,1.01-4.144,1.091-1.332,4.2-3.4,3.012.681C509.549,723.752,510.831,726.269,509.721,727.02Z" transform="translate(26.651 37.761)"/>
    <path id="Path_173" data-name="Path 173" d="M512.687,772.594a.479.479,0,0,1-.472-.4l-4.436-27.506a.478.478,0,0,1,.943-.153l4.436,27.506a.474.474,0,0,1-.395.547A.378.378,0,0,1,512.687,772.594Z" transform="translate(26.725 39.165)"/>
    <path id="Path_174" data-name="Path 174" d="M479.987,758.108a.543.543,0,0,1-.152-.024c-13.4-4.524-24.34-26.383-22.5-44.969a.476.476,0,0,1,.947.089c-1.8,18.2,8.82,39.576,21.857,43.976a.481.481,0,0,1,.3.6A.474.474,0,0,1,479.987,758.108Z" transform="translate(24.06 37.51)" fill="#3784f6"/>
    <path id="Path_175" data-name="Path 175" d="M471.034,722.441a12.817,12.817,0,0,1-4.751-.771.477.477,0,1,1,.367-.88c4.788,1.988,18.206,0,25.721-10.765a.475.475,0,0,1,.781.542A27.89,27.89,0,0,1,471.034,722.441Z" transform="translate(24.526 37.359)" fill="#3784f6"/>
    <path id="Path_176" data-name="Path 176" d="M466.583,716.141a.483.483,0,0,1-.477-.447.476.476,0,0,1,.448-.5c3.955-.247,14.466-.9,20.865-7.368a.475.475,0,1,1,.677.665c-6.657,6.727-17.431,7.4-21.485,7.65C466.607,716.141,466.6,716.141,466.583,716.141Z" transform="translate(24.532 37.246)" fill="#3784f6"/>
    <path id="Path_177" data-name="Path 177" d="M506.816,723.193a.552.552,0,0,1-.124-.014c-12.927-3.454-14.491-15.908-14.662-19.643a.475.475,0,0,1,.948-.042c.162,3.573,1.649,15.48,13.957,18.767a.474.474,0,0,1-.119.932Z" transform="translate(25.896 37.002)" fill="#3784f6"/>
    <path id="Path_178" data-name="Path 178" d="M511.008,729.231a.47.47,0,0,1-.467-.395.482.482,0,0,1,.386-.553c.791-.138.809-.818.476-2.793-.276-1.632-.624-3.662,1.048-4.434a.477.477,0,1,1,.4.866c-.938.433-.809,1.632-.51,3.411.272,1.589.61,3.568-1.253,3.892A.455.455,0,0,1,511.008,729.231Z" transform="translate(26.87 37.948)"/>
    <path id="Path_179" data-name="Path 179" d="M599.49,1039.9c9.792-82.148,16.82-187.991-4.708-229.137-23.71-45.318-69.867-48.766-69.867-48.766L498.988,861.3s-19.255,72.448-29.333,178.6Z" transform="translate(24.719 40.105)" fill="#fff"/>
    <path id="Path_180" data-name="Path 180" d="M470.16,1039.919c9.968-104.878,29.119-177.73,29.314-178.473l25.821-98.917a88.14,88.14,0,0,1,25.488,7.312,90.918,90.918,0,0,1,43.6,41.164c21.361,40.822,14.6,145.472,4.651,228.914h.957c9.959-83.561,16.7-188.339-4.764-229.356a91.883,91.883,0,0,0-44.052-41.587,87.5,87.5,0,0,0-26.2-7.432.478.478,0,0,0-.5.357L498.55,861.208c-.195.742-19.374,73.7-29.352,178.711Z" transform="translate(24.695 40.081)"/>
    <path id="Path_181" data-name="Path 181" d="M508.256,879.529a.55.55,0,0,1-.12-.015.475.475,0,0,1-.347-.576c4.226-16.774,35.132-79.255,37.428-83.884L526.8,771.073a.472.472,0,0,1,.091-.665.478.478,0,0,1,.667.089l18.6,24.215a.475.475,0,0,1,.047.5c-.328.665-33.145,66.72-37.49,83.96A.477.477,0,0,1,508.256,879.529Z" transform="translate(26.725 40.543)"/>
    <path id="Path_182" data-name="Path 182" d="M522.252,879.811a.486.486,0,0,1-.2-.043.472.472,0,0,1-.229-.633l13.1-28.111L527.483,836.5a.478.478,0,0,1,.853-.433l7.548,14.733a.48.48,0,0,1,.009.419l-13.2,28.32A.5.5,0,0,1,522.252,879.811Z" transform="translate(27.462 43.99)"/>
    <path id="Path_183" data-name="Path 183" d="M485.352,1039.677c4.5-74.532,9.387-155.219,6.509-170.433-17.106-90.493-11.426-103.118-11.426-103.118s-25.183,11.851-37.747,37.967c-14.381,29.895-26.732,143.178-31.459,235.583Z" transform="translate(21.644 40.323)" fill="#fff"/>
    <path id="Path_184" data-name="Path 184" d="M411.734,1039.7c4.788-93.6,17.177-205.794,31.411-235.374,10.968-22.8,31.867-34.785,36.571-37.259-.963,4.524-2.893,25.038,11.712,102.291,2.849,15.085-2.1,97.033-6.456,169.331l-.062,1.01h.953l.057-.947c4.58-75.9,9.316-154.371,6.442-169.57-16.8-88.852-11.517-102.709-11.459-102.833a.472.472,0,0,0-.1-.533.482.482,0,0,0-.539-.091c-.253.119-25.478,12.221-37.972,38.19C428,833.612,415.574,946,410.786,1039.7Z" transform="translate(21.62 40.299)"/>
    <path id="Path_185" data-name="Path 185" d="M481.041,880.426a.478.478,0,0,1-.458-.338l-26.24-87.523a.478.478,0,0,1,.1-.461L470.1,775.192a.475.475,0,0,1,.7.642l-15.467,16.713,26.16,87.262a.477.477,0,0,1-.32.594A.311.311,0,0,1,481.041,880.426Z" transform="translate(23.912 40.791)"/>
    <path id="Path_186" data-name="Path 186" d="M495.872,794.733c-5.652,0-11.8-1.375-16.482-6.018a.476.476,0,0,1,.672-.675c10.593,10.5,30.324,3.435,31.906,2.425a.479.479,0,0,1,.405-.142.474.474,0,0,1,.409.533c-.034.238-.062.491-2.831,1.432A45.74,45.74,0,0,1,495.872,794.733Zm15.967-4.005Z" transform="translate(25.224 41.468)"/>
    <path id="Path_187" data-name="Path 187" d="M474.633,899.721a.476.476,0,0,1-.453-.324l-19.317-57.3a.476.476,0,0,1,.062-.423L465,827.316a.475.475,0,0,1,.781.542l-9.939,14.167,19.24,57.067a.474.474,0,0,1-.3.6A.626.626,0,0,1,474.633,899.721Z" transform="translate(23.939 43.532)"/>
    <path id="Path_188" data-name="Path 188" d="M480.985,907.463c-8.038-.633-10.459-2.641-23.824-9.282-8.358-4.153-30.905-1.4-32.04,5.733-.657,4.139,13.285.957,18.212,6.589,5.608,6.417-40.235-7.226-43.379-2.008-2.083,3.463,2.682,7.793,2.682,7.793,2.331,12.212,29.238,35.826,78.283,30.627,18.225-1.932,72.745-9.035,72.745-9.035l-37.271-38.334C516.4,899.551,497.3,908.747,480.985,907.463Z" transform="translate(21.022 47.17)" fill="#fff"/>
    <path id="Path_189" data-name="Path 189" d="M467.281,948.156c-19.971,0-34.236-4.947-43.214-9.577-13.4-6.912-20.6-16-21.842-22.021-.762-.733-4.745-4.8-2.654-8.277,1.643-2.726,11.349-1.247,25.968,1.317,7.247,1.271,17.173,3.012,17.816,1.871.015-.024,0-.219-.353-.623-2.458-2.817-7.461-3.34-11.478-3.759-3.121-.328-5.589-.585-6.51-1.779a1.8,1.8,0,0,1-.338-1.441c.285-1.8,1.754-3.4,4.36-4.739,7.419-3.815,21.995-4.509,28.36-1.346,2.44,1.214,4.508,2.265,6.328,3.193,8.115,4.134,10.845,5.527,17.32,6.037,16,1.261,34.975-7.774,35.165-7.864a.474.474,0,0,1,.548.1l37.271,38.334a.484.484,0,0,1,.109.489.471.471,0,0,1-.391.315c-.543.071-54.735,7.126-72.756,9.034A129.812,129.812,0,0,1,467.281,948.156Zm-62.744-40.379c-2.2,0-3.722.28-4.151.994-1.863,3.093,2.549,7.155,2.592,7.193a.482.482,0,0,1,.148.262c1.105,5.789,8.143,14.685,21.375,21.507,10.8,5.566,29.343,11.6,56.393,8.734,16.7-1.769,64.469-7.958,71.794-8.909l-36.371-37.412c-2.555,1.176-20.218,9-35.342,7.812-6.665-.523-9.439-1.941-17.678-6.141-1.82-.928-3.883-1.979-6.318-3.193-6.037-3-20.427-2.3-27.5,1.342-2.293,1.18-3.626,2.578-3.855,4.043a.881.881,0,0,0,.152.714c.667.871,3.188,1.133,5.852,1.413,4.184.438,9.387.985,12.094,4.082.577.661.734,1.237.466,1.713-.885,1.565-6.408.776-18.812-1.4C418.417,909.313,409.659,907.777,404.537,907.777Z" transform="translate(20.998 47.146)" fill="#3784f6"/>
    <path id="Path_190" data-name="Path 190" d="M435.467,924.533h-.042c-13.742-1.218-27.289-7.583-27.422-7.644a.475.475,0,1,1,.409-.857c.134.062,13.533,6.352,27.1,7.559a.475.475,0,0,1,.434.515A.483.483,0,0,1,435.467,924.533Z" transform="translate(21.46 48.21)" fill="#3784f6"/>
    <path id="Path_191" data-name="Path 191" d="M432.28,933.215a.737.737,0,0,1-.1-.009c-10.349-2.118-15.939-5.257-16.172-5.391a.474.474,0,1,1,.472-.823c.057.034,5.7,3.2,15.891,5.285a.477.477,0,0,1,.372.562A.483.483,0,0,1,432.28,933.215Z" transform="translate(21.883 48.786)" fill="#3784f6"/>
    <path id="Path_192" data-name="Path 192" d="M439.5,931.178a3.868,3.868,0,0,1-3.612-2.417.476.476,0,0,1,.891-.338,2.922,2.922,0,0,0,3.021,1.784.486.486,0,0,1,.515.438.479.479,0,0,1-.439.514A3.273,3.273,0,0,1,439.5,931.178Z" transform="translate(22.94 48.848)" fill="#3784f6"/>
    <path id="Path_193" data-name="Path 193" d="M438.651,937.422a.334.334,0,0,1-.072-.005c-3.1-.476-3.668-2.6-3.693-2.687a.473.473,0,0,1,.348-.576.478.478,0,0,1,.576.342c.019.072.472,1.608,2.917,1.984a.474.474,0,0,1,.4.542A.493.493,0,0,1,438.651,937.422Z" transform="translate(22.888 49.165)" fill="#3784f6"/>
    <path id="Path_194" data-name="Path 194" d="M441.166,922.41a3.812,3.812,0,0,1-3.635-2.6.477.477,0,0,1,.909-.285,2.9,2.9,0,0,0,2.849,1.926.462.462,0,0,1,.49.457.471.471,0,0,1-.457.491A.879.879,0,0,1,441.166,922.41Z" transform="translate(23.027 48.379)" fill="#3784f6"/>
    <path id="Path_195" data-name="Path 195" d="M491.484,904.365c-.353,3.935,7.624,19.2,6.185,41.545-.105,1.66,3.635,4.173,5.688-.247,5.033-10.822-1.415-39.308-6.171-43.819C495.086,899.846,491.76,901.259,491.484,904.365Z" transform="translate(25.867 47.417)" fill="#fff"/>
    <path id="Path_196" data-name="Path 196" d="M500.341,948.637a3.286,3.286,0,0,1-.772-.095,2.967,2.967,0,0,1-2.359-2.64c1-15.5-2.563-27.593-4.688-34.819-.967-3.286-1.611-5.461-1.5-6.74a4.2,4.2,0,0,1,2.629-3.64,3.659,3.659,0,0,1,3.879.819c4.865,4.619,11.5,33.128,6.271,44.365C502.753,948.176,501.323,948.637,500.341,948.637Zm-5.375-47.22a2.622,2.622,0,0,0-.962.181,3.253,3.253,0,0,0-2.02,2.835c-.1,1.1.553,3.316,1.458,6.389,2.144,7.283,5.737,19.476,4.726,35.146-.038.561.672,1.408,1.639,1.656,1.239.319,2.359-.443,3.14-2.132,4.961-10.671-1.453-38.895-6.065-43.277A2.769,2.769,0,0,0,494.967,901.417Z" transform="translate(25.843 47.393)" fill="#3784f6"/>
    <path id="Path_197" data-name="Path 197" d="M483.969,914.286s1.053-9.486,3-9.857c3.812-.719,6.533,28.7,6.533,28.7Z" transform="translate(25.472 47.601)" fill="#fff"/>
    <path id="Path_198" data-name="Path 198" d="M493.527,933.629a.48.48,0,0,1-.477-.433c-.662-7.151-2.964-26.141-5.652-28.167a.384.384,0,0,0-.315-.109c-.962.18-2.129,5.028-2.62,9.443a.467.467,0,0,1-.524.418.474.474,0,0,1-.419-.523c.257-2.307,1.258-9.872,3.387-10.271a1.321,1.321,0,0,1,1.067.285c3.512,2.645,5.78,26.165,6.027,28.838a.475.475,0,0,1-.428.519Z" transform="translate(25.448 47.577)" fill="#3784f6"/>
    <path id="Path_199" data-name="Path 199" d="M510.549,899.668c-.143,13.5,4.245,35.242,1.073,41.074a239.728,239.728,0,0,0,23.519-5.694l-8.777-41.036S514.381,899.021,510.549,899.668Z" transform="translate(26.871 47.053)" fill="#b0602b"/>
    <path id="Path_200" data-name="Path 200" d="M525.6,958.1c-.01-.072-10.7-30-21.538-61.554,30.286-5.257,41.136-9.334,49.908-22.445,21.8-32.605-11.121-94.283,16.858-92.242,21.523,1.569,63.44,60.326,41.379,120.1C599.751,935.7,561.38,949.268,525.6,958.1Z" transform="translate(26.53 41.148)" fill="#fff"/>
    <path id="Path_201" data-name="Path 201" d="M524.547,956.194a.475.475,0,0,1-.115-.937l2.593-.638c35.184-8.648,88.356-21.721,89.6-90.178.281-15.4-6.156-36.5-6.223-36.717a.476.476,0,0,1,.911-.28c.066.214,6.547,21.464,6.261,37.011-.558,30.565-11.1,52.877-32.22,68.2-17.936,13.012-40.206,18.486-58.1,22.887l-2.593.637A.27.27,0,0,1,524.547,956.194Z" transform="translate(27.583 43.532)"/>
    <path id="Path_202" data-name="Path 202" d="M504.087,897.054a.471.471,0,0,1-.467-.395.481.481,0,0,1,.386-.552c29.471-5.119,40.768-9.048,49.593-22.241,9.649-14.428,7.867-36.531,6.3-56.025-1.12-13.873-2.083-25.856,1.286-32.606a7.294,7.294,0,0,1,6.013-3.9c6.438-.78,15.2,3.687,21.3,10.861a.476.476,0,0,1-.724.618c-5.908-6.945-14.328-11.279-20.465-10.532a6.385,6.385,0,0,0-5.275,3.377c-3.255,6.518-2.3,18.378-1.192,32.107,1.582,19.652,3.379,41.925-6.456,56.629-9.016,13.482-20.446,17.483-50.222,22.649A.226.226,0,0,1,504.087,897.054Z" transform="translate(26.506 41.118)"/>
    <path id="Path_203" data-name="Path 203" d="M536.057,878.913c5.332,25.2,9.139,52.105,8.867,74.6l-35.665,4.205c-.072-1.893-6.772-55.445-11.222-71.029C505.642,885.188,521.3,881.9,536.057,878.913Z" transform="translate(26.213 46.259)" fill="#fff"/>
    <path id="Path_204" data-name="Path 204" d="M509.283,958.22a.461.461,0,0,1-.31-.114.473.473,0,0,1-.167-.342c-.066-1.846-6.795-55.465-11.207-70.917a.478.478,0,0,1,.367-.6c3.988-.789,10.163-2.06,17.311-3.535,6.414-1.322,13.685-2.821,20.7-4.243a.484.484,0,0,1,.562.366c4.222,19.942,9.186,49.095,8.882,74.707a.477.477,0,0,1-.42.466l-35.665,4.205A.262.262,0,0,1,509.283,958.22Zm-10.626-71.139c4.236,15.427,10.468,64.341,11.06,70.13l34.76-4.1c.243-25.233-4.6-53.847-8.767-73.623-6.872,1.395-13.966,2.855-20.237,4.148C508.616,885.059,502.655,886.286,498.657,887.081Z" transform="translate(26.188 46.235)"/>
    <path id="Path_205" data-name="Path 205" d="M470.9,736.333s8.376-4.748,13.546-5.31c7.462-.808,21.452.789,21.452.789l-.529,14.515s-8.181,5.727-15.428,6.479c-5.513.57-13.346-2.4-13.346-2.4Z" transform="translate(24.784 38.463)" fill="#3784f6"/>
    <path id="Path_206" data-name="Path 206" d="M502.864,734.266a.792.792,0,0,1-.1-.01.481.481,0,0,1-.366-.566c.338-1.589,3.468-15.552,8.181-16.669a.474.474,0,1,1,.219.923c-3.5.833-6.58,11.788-7.472,15.941A.468.468,0,0,1,502.864,734.266Z" transform="translate(26.441 37.737)" fill="#3784f6"/>
    <path id="Path_207" data-name="Path 207" d="M324.246,805.347a.476.476,0,0,1-.395-.209l-3.44-5.038a.476.476,0,0,1,.785-.538l3.441,5.038a.479.479,0,0,1-.124.662A.459.459,0,0,1,324.246,805.347Z" transform="translate(16.859 42.071)" fill="#3784f6"/>
    <path id="Path_208" data-name="Path 208" d="M562.291,1029.587l3.9-2.052,12.413-59.483-62.554-10.208-2.778,63.176,11.636,8.568Z" transform="translate(27.014 50.413)" fill="#fff"/>
    <path id="Path_209" data-name="Path 209" d="M513.017,1021.421l11.117,8.189h1.605l-11.951-8.81,2.74-62.377,61.535,10.042L565.8,1027.242l-4.5,2.368h2.039l3.1-1.632a.48.48,0,0,0,.243-.326L579.1,968.176a.475.475,0,0,0-.072-.366.468.468,0,0,0-.315-.2L516.157,957.4a.469.469,0,0,0-.376.1.477.477,0,0,0-.177.347l-2.778,63.163A.467.467,0,0,0,513.017,1021.421Z" transform="translate(26.991 50.389)"/>
    <path id="Path_210" data-name="Path 210" d="M530.765,959.976s8.443,3.2,11.726,9.972c1.335,2.754,1.754,12.116,1.754,12.116l27.188-.651s-.181-14.485-2.535-18.358C561.046,950.114,530.765,959.976,530.765,959.976Z" transform="translate(27.935 50.336)" fill="#3784f6"/>
    <path id="Path_211" data-name="Path 211" d="M544.269,982.565a.477.477,0,0,1-.477-.457c0-.095-.428-9.3-1.705-11.931-3.159-6.518-11.383-9.705-11.464-9.734a.474.474,0,0,1-.305-.457.485.485,0,0,1,.328-.442c1.248-.409,30.729-9.824,38.686,3.282,2.393,3.939,2.6,18,2.6,18.6a.473.473,0,0,1-.467.48l-27.188.653A.015.015,0,0,1,544.269,982.565Zm-12.094-22.482c2.5,1.169,8.163,4.305,10.769,9.685,1.205,2.483,1.673,9.881,1.777,11.836l26.249-.627c-.057-2.513-.433-14.315-2.458-17.649C561.837,952.318,537.9,958.427,532.175,960.083Z" transform="translate(27.911 50.31)"/>
    <path id="Path_212" data-name="Path 212" d="M545.97,985.051c1.029,2.183,5.032,15.037,11.879,14.376,5.761-.557,12.78-19.272,12.78-19.272Z" transform="translate(28.735 51.587)" fill="#fff"/>
    <path id="Path_213" data-name="Path 213" d="M557.358,999.95c-5.965,0-9.644-9.291-11.24-13.325-.238-.6-.424-1.071-.553-1.346a.476.476,0,0,1,.862-.4c.143.3.334.789.577,1.4,1.524,3.848,5.041,12.726,10.359,12.726.153,0,.309-.01.467-.024,4.483-.433,10.459-13.834,12.379-18.962a.478.478,0,0,1,.9.333c-.291.776-7.195,19-13.18,19.576C557.731,999.945,557.544,999.95,557.358,999.95Z" transform="translate(28.711 51.563)"/>
    <path id="Path_214" data-name="Path 214" d="M555.342,979.316l-3.378-13.329Z" transform="translate(29.051 50.841)" fill="#fff"/>
    <path id="Path_215" data-name="Path 215" d="M555.366,979.816a.476.476,0,0,1-.462-.357l-3.378-13.329a.474.474,0,0,1,.919-.234l3.379,13.33a.474.474,0,0,1-.343.576A.449.449,0,0,1,555.366,979.816Z" transform="translate(29.027 50.818)"/>
    <path id="Path_216" data-name="Path 216" d="M560.089,978.556l.409-11.218Z" transform="translate(29.478 50.912)" fill="#fff"/>
    <path id="Path_217" data-name="Path 217" d="M560.113,979.056h-.019a.476.476,0,0,1-.458-.495l.411-11.218a.477.477,0,0,1,.953.038l-.41,11.218A.474.474,0,0,1,560.113,979.056Z" transform="translate(29.454 50.889)"/>
    <path id="Path_218" data-name="Path 218" d="M456.188,707.883s14.243-10.347,31.859-8.12c29.995,3.786,43.141,27.92,43.141,27.92l4.5-18.72s-.019-26.279-32.744-32.663c-29.6-5.775-43.613,17.987-43.613,17.987Z" transform="translate(24.01 35.547)" fill="#fff"/>
    <path id="Path_219" data-name="Path 219" d="M527.56,716.257a.481.481,0,0,1-.395-.209c-.128-.191-13.056-18.991-36.3-22.012a.475.475,0,1,1,.124-.942c23.686,3.078,36.842,22.231,36.971,22.421a.474.474,0,0,1-.128.661A.513.513,0,0,1,527.56,716.257Z" transform="translate(25.813 36.478)"/>
    <path id="Path_220" data-name="Path 220" d="M474.912,734.133a10.176,10.176,0,0,1-5.456-1.265c-3.054-2.122-3.54-8.3-2.235-11.046,2.4-5.047,9.563-6.384,16.94-7.079,7.095-.666,16.839-1.242,19.545,1.479,2.468,2.479,3.093,7.921-.205,12.383-2.5,3.383-11.264,4.186-14.7,2.056a5.7,5.7,0,0,1-1.8-2.16c-.643-1.114-1.053-1.737-2.025-1.6-1.005.138-1.253.914-1.6,2.274a6.645,6.645,0,0,1-1.043,2.521C481.05,733.334,477.9,734.133,474.912,734.133Zm19.088-19c-3.821,0-7.776.371-9.744.557-7.095.665-13.965,1.922-16.167,6.541-1.148,2.407-.643,8.073,1.916,9.857,2.463,1.713,9.687,1.422,11.588-.98a5.75,5.75,0,0,0,.867-2.169c.328-1.29.705-2.75,2.392-2.982,1.648-.228,2.359.989,2.978,2.068a4.865,4.865,0,0,0,1.478,1.827c3.078,1.913,11.212,1.194,13.427-1.807,2.992-4.058,2.482-8.948.295-11.146C501.668,715.523,497.9,715.137,494,715.137Z" transform="translate(24.555 37.589)" fill="#3784f6"/>
    <path id="Path_221" data-name="Path 221" d="M310.766,770.448H283.22v9.866h27.546Z" transform="translate(14.906 40.55)" fill="#fff"/>
    <path id="Path_222" data-name="Path 222" d="M297.494,755.977c-11.126-.072-20.16,2.687-20.184,6.16l-.038,6.29c-.024,3.473,8.977,6.346,20.1,6.413s20.16-2.687,20.184-6.16l.038-6.289C317.616,758.921,308.62,756.049,297.494,755.977Z" transform="translate(14.593 39.788)"/>
    <path id="Path_223" data-name="Path 223" d="M311.4,777.331s10.383.914,10.34,7.521c-.109,17.4-.438,69.613-.438,69.613-.053,7.987-6.595,13.092-14.391,14.372-7.357,1.208-13.6,1.261-19.807-.123-7.705-1.722-14.257-6.565-14.2-14.553,0,0,.353-51.873.438-69.161.038-7.383,8.973-7.849,8.973-7.849Z" transform="translate(14.363 40.903)" fill="#fff"/>
    <path id="Path_224" data-name="Path 224" d="M296.719,870.25a44.1,44.1,0,0,1-9.7-1.052c-9.178-2.051-14.624-7.664-14.581-15.019,0-.518.353-52.067.438-69.16.039-7.745,9.331-8.316,9.425-8.321l.047.952c-.347.019-8.486.533-8.519,7.374-.086,17.093-.434,68.642-.439,69.161-.043,6.874,5.127,12.14,13.833,14.086,5.971,1.332,12.022,1.369,19.627.119,8.453-1.39,13.946-6.846,13.989-13.906l.438-69.611c.039-6.1-9.806-7.037-9.906-7.046l.086-.946c.443.038,10.821,1.033,10.778,8l-.438,69.613c-.048,7.545-5.852,13.373-14.786,14.838A63.574,63.574,0,0,1,296.719,870.25Z" transform="translate(14.339 40.879)"/>
    <path id="Path_225" data-name="Path 225" d="M286.732,785.723a.552.552,0,0,1-.191-.038c-2.531-1.095-3.8-3.444-3.779-6.988l.028-4.234a.474.474,0,0,1,.477-.472h0a.472.472,0,0,1,.472.481l-.028,4.228c-.019,3.168,1.029,5.166,3.2,6.108a.477.477,0,0,1,.248.628A.46.46,0,0,1,286.732,785.723Z" transform="translate(14.882 40.736)"/>
    <path id="Path_226" data-name="Path 226" d="M302.8,786.464h-.077a.472.472,0,0,1-.472-.481.484.484,0,0,1,.481-.471h.067a6.879,6.879,0,0,0,4.621-1.484,6.578,6.578,0,0,0,1.944-5.147l.029-4.59a.473.473,0,0,1,.476-.472h.005a.472.472,0,0,1,.472.481l-.028,4.591a7.463,7.463,0,0,1-2.268,5.852A7.784,7.784,0,0,1,302.8,786.464Z" transform="translate(15.908 40.727)"/>
    <path id="Path_227" data-name="Path 227" d="M297.838,769.264h-.391a.476.476,0,0,1,0-.952h.443c11.722,0,19.579-2.968,19.6-5.795.009-1.46-2.044-2.954-5.637-4.1a56.452,56.452,0,0,0-28.671-.181c-3.606,1.1-5.68,2.568-5.689,4.029-.009,1.507,2.259,3.087,6.066,4.234a.477.477,0,1,1-.277.914c-4.36-1.314-6.757-3.144-6.742-5.153.015-1.932,2.273-3.686,6.361-4.933a50.621,50.621,0,0,1,14.2-1.8h.43a51.242,51.242,0,0,1,14.608,1.983c4.075,1.3,6.314,3.083,6.3,5.015C318.417,766.771,308.016,769.264,297.838,769.264Z" transform="translate(14.555 39.765)" fill="#fff"/>
    <path id="Path_228" data-name="Path 228" d="M296.882,792.934h-.353c-10.793-.067-20.6-3.435-20.575-7.069a.472.472,0,0,1,.476-.471h.005a.471.471,0,0,1,.472.48c-.015,2.383,7.805,6.037,19.626,6.108a45.279,45.279,0,0,0,14.1-1.956c3.445-1.137,5.595-2.635,5.6-3.905a.473.473,0,0,1,.477-.471h0a.471.471,0,0,1,.472.48c-.009,1.77-2.229,3.473-6.256,4.805A46.531,46.531,0,0,1,296.882,792.934Z" transform="translate(14.524 41.337)"/>
    <path id="Path_229" data-name="Path 229" d="M297.32,857.732c-6.275,0-13.471-1.089-19.593-4.847a.478.478,0,1,1,.5-.814c14.108,8.663,34.145,2.749,34.345,2.687a.477.477,0,1,1,.277.914A60.135,60.135,0,0,1,297.32,857.732Z" transform="translate(14.605 44.842)"/>
    <path id="Path_230" data-name="Path 230" d="M283.184,799.18l1.658,42.025a29.376,29.376,0,0,0,11.35,2.26c9.492.076,13.213-2.279,13.213-2.279l1.467-42.429s-8.381,1.6-14.1,1.189C293.381,799.709,283.184,799.18,283.184,799.18Z" transform="translate(14.904 42.04)"/>
    <path id="Path_231" data-name="Path 231" d="M335.225,810.359s-19.374-6.993-25.573-6.983c-5.032.005-15.105,3.349-17.1,7.959-.916,2.112,1.3,6.084,3.087,7.536,4.083,3.316,16.334,1,20.684,3.962,5.289,3.6,9.044,17.2,13.68,21.6,3.479,3.3,16.729,9.419,16.729,9.419Z" transform="translate(15.386 42.283)" fill="#fff"/>
    <path id="Path_232" data-name="Path 232" d="M346.656,854.242a.49.49,0,0,1-.2-.043c-.543-.252-13.361-6.188-16.859-9.509-2.177-2.064-4.093-5.956-6.122-10.071-2.325-4.715-4.727-9.591-7.5-11.48-2.025-1.379-6.047-1.6-9.935-1.812-4.184-.228-8.511-.466-10.77-2.16-2.739-2.051-3.845-6.679-2.829-9.024,2.2-5.081,12.569-7.817,18.44-7.388,7.743.557,23.758,6.813,24.434,7.079a.476.476,0,1,1-.353.884c-.166-.066-16.558-6.474-24.153-7.017-6.352-.452-15.672,2.6-17.5,6.818-.867,1.993.153,6.107,2.525,7.887,2.029,1.517,6.208,1.745,10.249,1.97,4.2.233,8.172.447,10.416,1.979,2.978,2.026,5.442,7.017,7.819,11.845,1.993,4.039,3.869,7.854,5.923,9.8,3.383,3.212,16.473,9.273,16.6,9.334a.479.479,0,0,1,.234.633A.454.454,0,0,1,346.656,854.242Z" transform="translate(15.372 42.248)" fill="#3784f6"/>
    <path id="Path_233" data-name="Path 233" d="M298.524,873.125a66.185,66.185,0,0,1-48.4-21.132.727.727,0,0,1,.038-1.032.736.736,0,0,1,1.034.038,64.709,64.709,0,0,0,47.331,20.665.73.73,0,1,1,0,1.46Z" transform="translate(13.154 44.777)" fill="#fff"/>
    <path id="Path_234" data-name="Path 234" d="M236.141,829.333a.738.738,0,0,1-.711-.553,65.915,65.915,0,1,1,129.882-16,.734.734,0,0,1-1.467,0,64.46,64.46,0,1,0-127,15.647.725.725,0,0,1-.534.884A.661.661,0,0,1,236.141,829.333Z" transform="translate(12.288 39.314)" fill="#fff"/>
    <path id="Path_235" data-name="Path 235" d="M295.428,860.152c-.673,0-1.348-.014-2.021-.038a.714.714,0,1,1,.058-1.427A51.155,51.155,0,0,0,331.5,843.82a.714.714,0,1,1,1.01,1.008A52.646,52.646,0,0,1,295.428,860.152Z" transform="translate(15.406 44.401)" fill="#fff"/>
    <path id="Path_236" data-name="Path 236" d="M261.389,848.688a.718.718,0,0,1-.505-.208,52.265,52.265,0,0,1,0-73.995.713.713,0,0,1,1.009,1.008,50.845,50.845,0,0,0,0,71.978.707.707,0,0,1,0,1.008A.716.716,0,0,1,261.389,848.688Z" transform="translate(12.923 40.751)" fill="#fff"/>
    <path id="Path_237" data-name="Path 237" d="M98.646,877a.473.473,0,0,1-.405-.224l-4.979-7.873a.477.477,0,0,1,.148-.657.482.482,0,0,1,.658.147l4.979,7.874a.475.475,0,0,1-.148.656A.458.458,0,0,1,98.646,877Z" transform="translate(4.905 45.694)"/>
    <path id="Path_238" data-name="Path 238" d="M0,432.679c22.881-.994,56.836-15.261,67.352-56.068,16.577-64.327-112.9-283.669,118.3-293.887C338.742,75.954,338.742,0,338.742,0H0Z" transform="translate(0 0)" fill="#333" fill-rule="evenodd"/>
  </g>
</svg>
